{
	"info": {
		"_postman_id": "0f5f72f6-ebf8-4c4c-8b22-9ce4c1222d04",
		"name": "b170-s31",
		"schema": "https://schema.getpostman.com/json/collection/v2.1.0/collection.json"
	},
	"item": [
		{
			"name": "get all tasks",
			"request": {
				"method": "GET",
				"header": [],
				"url": {
					"raw": "localhost:3000/tasks/",
					"host": [
						"localhost"
					],
					"port": "3000",
					"path": [
						"tasks",
						""
					]
				}
			},
			"response": []
		},
		{
			"name": "create a task",
			"request": {
				"method": "POST",
				"header": [],
				"body": {
					"mode": "raw",
					"raw": "{\r\n    \"name\": \"cooking a meal\"\r\n}",
					"options": {
						"raw": {
							"language": "json"
						}
					}
				},
				"url": {
					"raw": "localhost:3000/tasks/",
					"host": [
						"localhost"
					],
					"port": "3000",
					"path": [
						"tasks",
						""
					]
				}
			},
			"response": []
		},
		{
			"name": "delete a task",
			"request": {
				"method": "DELETE",
				"header": [],
				"url": {
					"raw": "localhost:3000/tasks/62667615b95209882d35cd41",
					"host": [
						"localhost"
					],
					"port": "3000",
					"path": [
						"tasks",
						"62667615b95209882d35cd41"
					]
				}
			},
			"response": []
		},
		{
			"name": "update a task",
			"request": {
				"method": "PUT",
				"header": [],
				"body": {
					"mode": "raw",
					"raw": "{\r\n    \"name\": \"hello from the other side\"\r\n}",
					"options": {
						"raw": {
							"language": "json"
						}
					}
				},
				"url": {
					"raw": "localhost:3000/tasks/6267dd042eb8b036b2b3a856",
					"host": [
						"localhost"
					],
					"port": "3000",
					"path": [
						"tasks",
						"6267dd042eb8b036b2b3a856"
					]
				}
			},
			"response": []
		},
		{
			"name": "get task",
			"request": {
				"method": "GET",
				"header": [],
				"url": {
					"raw": "localhost:3000/tasks/6267dd042eb8b036b2b3a856",
					"host": [
						"localhost"
					],
					"port": "3000",
					"path": [
						"tasks",
						"6267dd042eb8b036b2b3a856"
					]
				}
			},
			"response": []
		},
		{
			"name": "complete a task",
			"request": {
				"method": "PUT",
				"header": [],
				"body": {
					"mode": "raw",
					"raw": "{\r\n    \"status\": \"complete\"\r\n}",
					"options": {
						"raw": {
							"language": "json"
						}
					}
				},
				"url": {
					"raw": "localhost:3000/tasks/6267dd042eb8b036b2b3a856/complete",
					"host": [
						"localhost"
					],
					"port": "3000",
					"path": [
						"tasks",
						"6267dd042eb8b036b2b3a856",
						"complete"
					]
				}
			},
			"response": []
		}
	]
}